Autoregressive Forecasting (Recursive Ensembles) • modeltime.ensemble
…
The next step is to create a Transformer Function where we create the lagged variables that our model will use. Notice that we create lags up to our forecast horizon. We could also include rolling features and any number of other “engineered features” based on lags.

lag_transformer <- function(data){
    data %>%
        tk_augment_lags(value, .lags = 1:FORECAST_HORIZON)
}

# Data Preparation
m750_lagged <- m750_extended %>% lag_transformer()
m750_lagged

#> # A tibble: 330 x 27
#>    id    date       value value_lag1 value_lag2 value_lag3 value_lag4 value_lag5
#>    <fct> <date>     <dbl>      <dbl>      <dbl>      <dbl>      <dbl>      <dbl>
#>  1 M750  1990-01-01  6370         NA         NA         NA         NA         NA
#>  2 M750  1990-02-01  6430       6370         NA         NA         NA         NA
#>  3 M750  1990-03-01  6520       6430       6370         NA         NA         NA
#>  4 M750  1990-04-01  6580       6520       6430       6370         NA         NA
#>  5 M750  1990-05-01  6620       6580       6520       6430       6370         NA
#>  6 M750  1990-06-01  6690       6620       6580       6520       6430       6370
#>  7 M750  1990-07-01  6000       6690       6620       6580       6520       6430
#>  8 M750  1990-08-01  5450       6000       6690       6620       6580       6520
#>  9 M750  1990-09-01  6480       5450       6000       6690       6620       6580
#> 10 M750  1990-10-01  6820       6480       5450       6000       6690       6620
#> # … with 320 more rows, and 19 more variables: value_lag6 <dbl>,
#> #   value_lag7 <dbl>, value_lag8 <dbl>, value_lag9 <dbl>, value_lag10 <dbl>,
#> #   value_lag11 <dbl>, value_lag12 <dbl>, value_lag13 <dbl>, value_lag14 <dbl>,
#> #   value_lag15 <dbl>, value_lag16 <dbl>, value_lag17 <dbl>, value_lag18 <dbl>,
#> #   value_lag19 <dbl>, value_lag20 <dbl>, value_lag21 <dbl>, value_lag22 <dbl>,
#> #   value_lag23 <dbl>, value_lag24 <dbl>
…
lag_transformer_grouped <- function(data){
    data %>%
        group_by(id) %>%
        tk_augment_lags(value, .lags = 1:FORECAST_HORIZON) %>%
        ungroup()
}

Then, we apply the function and divide the data into training and future set:

m4_lags <- m4_extended %>%
    lag_transformer_grouped()

m4_lags

#> # A tibble: 1,670 x 27
#>    id    date       value value_lag1 value_lag2 value_lag3 value_lag4 value_lag5
#>    <fct> <date>     <dbl>      <dbl>      <dbl>      <dbl>      <dbl>      <dbl>
#>  1 M1    1976-06-01  8000         NA         NA         NA         NA         NA
#>  2 M1    1976-07-01  8350       8000         NA         NA         NA         NA
#>  3 M1    1976-08-01  8570       8350       8000         NA         NA         NA
#>  4 M1    1976-09-01  7700       8570       8350       8000         NA         NA
#>  5 M1    1976-10-01  7080       7700       8570       8350       8000         NA
#>  6 M1    1976-11-01  6520       7080       7700       8570       8350       8000
#>  7 M1    1976-12-01  6070       6520       7080       7700       8570       8350
#>  8 M1    1977-01-01  6650       6070       6520       7080       7700       8570
#>  9 M1    1977-02-01  6830       6650       6070       6520       7080       7700
#> 10 M1    1977-03-01  5710       6830       6650       6070       6520       7080
#> # … with 1,660 more rows, and 19 more variables: value_lag6 <dbl>,
#> #   value_lag7 <dbl>, value_lag8 <dbl>, value_lag9 <dbl>, value_lag10 <dbl>,
#> #   value_lag11 <dbl>, value_lag12 <dbl>, value_lag13 <dbl>, value_lag14 <dbl>,
#> #   value_lag15 <dbl>, value_lag16 <dbl>, value_lag17 <dbl>, value_lag18 <dbl>,
#> #   value_lag19 <dbl>, value_lag20 <dbl>, value_lag21 <dbl>, value_lag22 <dbl>,
#> #   value_lag23 <dbl>, value_lag24 <dbl>
…
